tidytuesday 220709 | psadil
…
## Rows: 491636 Columns: 7

## ── Column specification ────────────────────────────────────────────────────────
## Delimiter: ","
## chr (5): variable, label, iso3c, group, category
## dbl (2): year, value
## 
## ℹ Use `spec()` to retrieve the full column specification for this data.
## ℹ Specify the column types or set `show_col_types = FALSE` to quiet this message.

technology

## # A tibble: 491,636 × 7
##    variable label                               iso3c  year group category value
##    <chr>    <chr>                               <chr> <dbl> <chr> <chr>    <dbl>
##  1 BCG      % children who received a BCG immu… AFG    1982 Cons… Vaccines    10
##  2 BCG      % children who received a BCG immu… AFG    1983 Cons… Vaccines    10
##  3 BCG      % children who received a BCG immu… AFG    1984 Cons… Vaccines    11
##  4 BCG      % children who received a BCG immu… AFG    1985 Cons… Vaccines    17
##  5 BCG      % children who received a BCG immu… AFG    1986 Cons… Vaccines    18
##  6 BCG      % children who received a BCG immu… AFG    1987 Cons… Vaccines    27
##  7 BCG      % children who received a BCG immu… AFG    1988 Cons… Vaccines    40
##  8 BCG      % children who received a BCG immu… AFG    1989 Cons… Vaccines    38
##  9 BCG      % children who received a BCG immu… AFG    1990 Cons… Vaccines    30
## 10 BCG      % children who received a BCG immu… AFG    1991 Cons… Vaccines    21
## # … with 491,626 more rows
…
